nbitAdder/nadder.vcd
$date
     May 03, 2019       06:17:31
$end

$version
 SystemC 2.3.2-Accellera --- Mar 11 2019 09:33:27
$end

$timescale
     1 ms
$end

$scope module SystemC $end
$var wire    1  aaaaa  A(0)       $end
$var wire    1  aaaab  B(0)       $end
$var wire    1  aaaac  S(0)       $end
$var wire    1  aaaad  A(1)       $end
$var wire    1  aaaae  B(1)       $end
$var wire    1  aaaaf  S(1)       $end
$var wire    1  aaaag  A(2)       $end
$var wire    1  aaaah  B(2)       $end
$var wire    1  aaaai  S(2)       $end
$var wire    1  aaaaj  A(3)       $end
$var wire    1  aaaak  B(3)       $end
$var wire    1  aaaal  S(3)       $end
$var wire    1  aaaam  A(4)       $end
$var wire    1  aaaan  B(4)       $end
$var wire    1  aaaao  S(4)       $end
$var wire    1  aaaap  A(5)       $end
$var wire    1  aaaaq  B(5)       $end
$var wire    1  aaaar  S(5)       $end
$var wire    1  aaaas  A(6)       $end
$var wire    1  aaaat  B(6)       $end
$var wire    1  aaaau  S(6)       $end
$var wire    1  aaaav  A(7)       $end
$var wire    1  aaaaw  B(7)       $end
$var wire    1  aaaax  S(7)       $end
$var wire    1  aaaay  Carry_In       $end
$var wire    1  aaaaz  Carry_Out       $end
$var wire    1  aaaba  CLK       $end
$upscope $end
$enddefinitions  $end

$comment
All initial values are dumped below at time 0 sec = 0 timescale units.
$end

$dumpvars
1aaaaa
0aaaab
0aaaac
1aaaad
0aaaae
0aaaaf
1aaaag
1aaaah
0aaaai
0aaaaj
0aaaak
0aaaal
1aaaam
1aaaan
0aaaao
0aaaap
1aaaaq
0aaaar
1aaaas
1aaaat
0aaaau
1aaaav
0aaaaw
0aaaax
0aaaay
0aaaaz
1aaaba
$end

#5
0aaaba

#10
1aaaac
1aaaaf
1aaaar
1aaaax
1aaaba

#15
0aaaba

#20
1aaaal
0aaaar
0aaaax
1aaaaz
1aaaba

#25
0aaaba

#30
1aaaau
1aaaba

#35
0aaaba

#40
1aaaba

#45
0aaaba

#50
1aaaba

#55
0aaaba

#60
1aaaba

#65
0aaaba

#70
1aaaba

#75
0aaaba

#80
1aaaba

#85
0aaaba

#90
1aaaba

#95
0aaaba

#100
0aaaaa
1aaaab
0aaaad
0aaaam
1aaaap
0aaaaq
0aaaat
0aaaav
1aaaay
1aaaba

#105
0aaaba

#110
0aaaac
0aaaaf
1aaaao
0aaaau
1aaaax
0aaaaz
1aaaba

#115
0aaaba

#120
1aaaaf
1aaaar
1aaaba

#125
0aaaba

#130
1aaaau
1aaaba

#135
0aaaba

#140
0aaaax
1aaaba

#145
0aaaba

#150
1aaaba

#155
0aaaba

#160
1aaaba

#165
0aaaba

#170
1aaaba

#175
0aaaba

#180
1aaaba

#185
0aaaba

#190
1aaaba

#195
0aaaba

#200
0aaaab
1aaaad
1aaaae
0aaaah
1aaaaj
1aaaam
0aaaas
1aaaat
0aaaay
1aaaba

#205
0aaaba

#210
1aaaai
0aaaal
0aaaao
1aaaba

#215
0aaaba

#220
0aaaaf
0aaaai
1aaaal
1aaaao
0aaaar
1aaaba

#225
0aaaba

#230
0aaaal
0aaaao
0aaaau
1aaaba

#235
0aaaba

#240
1aaaao
1aaaax
1aaaba

#245
0aaaba

#250
1aaaba

#255
0aaaba

#260
1aaaba

#265
0aaaba

#270
1aaaba

#275
0aaaba

#280
1aaaba

#285
0aaaba

#290
1aaaba

#295
0aaaba

#300
1aaaab
0aaaag
1aaaah
0aaaaj
1aaaak
0aaaan
1aaaas
1aaaav
1aaaay
1aaaba

#305
0aaaba

#310
0aaaao
1aaaau
0aaaax
1aaaaz
1aaaba

#315
0aaaba

#320
1aaaaf
1aaaba

